allama	('amar', 20)	('godzilla-2-king-of-the-monsters', 2)	('ishq', 1)
sipinath	('ngk', 20)
uddalok	"(""india's-most-wanted"", 7)"	('godzilla-2-king-of-the-monsters', 3)	('nakkash', 2)	('yeh-jawaani-hai-deewani', 1)	('me-and-mr.-canadian', 1)	('venom', 1)	('mard-ko-dard-nahi-hota', 1)	('uri---the-surgical-strike', 1)	('total-dhamaal', 1)	('badla', 1)	('andhadhun', 1)	('gully-boy', 1)
